%YAML 1.1
%TAG !u! tag:unity3d.com,2011:
--- !u!114 &11400000
MonoBehaviour:
  m_ObjectHideFlags: 0
  m_PrefabParentObject: {fileID: 0}
  m_PrefabInternal: {fileID: 0}
  m_GameObject: {fileID: 0}
  m_Enabled: 1
  m_EditorHideFlags: 0
  m_Script: {fileID: 11500000, guid: 8e878c3fa8ac58d438a292ae23f5a0b0, type: 3}
  m_Name: OtherSamplePlayedCard
  m_EditorClassIdentifier: 
  Name: 
  CardShape: {fileID: 21300000, guid: 034b119de4a2ca64e9bd8947439e1b40, type: 3}
  AttackShape: {fileID: 21300000, guid: b00a2f94dd9dc764787b84b662576635, type: 3}
  DefenceShape: {fileID: 21300000, guid: 72b8dae2ba11fbb4797b86ae12f81373, type: 3}
  OverloadShape: {fileID: 21300000, guid: c3396e4af0bc360408ce7e388911c698, type: 3}
  Artwork: {fileID: 21300000, guid: c6de57b83a496354989c09c76a3dd3ae, type: 3}
  CardShapeColor: {r: 1, g: 1, b: 1, a: 0.78431374}
  AttackShapeColor: {r: 1, g: 0, b: 0, a: 0.78431374}
  DefenceShapeColor: {r: 1, g: 0.627451, b: 0, a: 0.78431374}
  OverloadShapeColor: {r: 0.78431374, g: 0.19607843, b: 0.19607843, a: 0.78431374}
  AttackTextColor: {r: 1, g: 1, b: 1, a: 1}
  DefenceTextColor: {r: 1, g: 1, b: 1, a: 1}
  OverloadTextColor: {r: 1, g: 1, b: 1, a: 1}
  CardId: 2
  Attack: 3
  Defence: 3
  Overload: 0
  CardType: 3
