%YAML 1.1
%TAG !u! tag:unity3d.com,2011:
--- !u!114 &11400000
MonoBehaviour:
  m_ObjectHideFlags: 0
  m_CorrespondingSourceObject: {fileID: 0}
  m_PrefabInternal: {fileID: 0}
  m_GameObject: {fileID: 0}
  m_Enabled: 1
  m_EditorHideFlags: 0
  m_Script: {fileID: 11500000, guid: 3ad13e1bdf4f1db48a3e319293be8bf9, type: 3}
  m_Name: DemoHandCard
  m_EditorClassIdentifier: 
  name: SampleCard
  description: This is a sample card. Use only for testing purposes!
  cost:
    neutral: 0
    raiders: 0
    scanners: 0
    whiteHats: 0
    psychotronnics: 0
  attack: 2
  health: 3
  cardShape: {fileID: 21300000, guid: 304eeb802a2dd8e498f669419a48edac, type: 3}
  neutralCostShape: {fileID: 21300000, guid: 304eeb802a2dd8e498f669419a48edac, type: 3}
  raidersCostShape: {fileID: 21300000, guid: 304eeb802a2dd8e498f669419a48edac, type: 3}
  scannersCostShape: {fileID: 21300000, guid: 304eeb802a2dd8e498f669419a48edac, type: 3}
  whiteHatsCostShape: {fileID: 21300000, guid: 304eeb802a2dd8e498f669419a48edac, type: 3}
  psychotronnicsCostShape: {fileID: 21300000, guid: 304eeb802a2dd8e498f669419a48edac,
    type: 3}
  attackAndDefenceShape: {fileID: 0}
  cardShapeColor: {r: 0, g: 0, b: 0, a: 1}
  neutralCostShapeColor: {r: 1, g: 1, b: 1, a: 1}
  raidersCostShapeColor: {r: 1, g: 1, b: 1, a: 1}
  scannersCostShapeColor: {r: 1, g: 1, b: 1, a: 1}
  whiteHatsCostShapeColor: {r: 1, g: 1, b: 1, a: 1}
  psychotronnicsCostShapeColor: {r: 1, g: 1, b: 1, a: 1}
  attackAndDefenceShapeColor: {r: 1, g: 1, b: 1, a: 1}
  artwork: {fileID: 21300000, guid: c6de57b83a496354989c09c76a3dd3ae, type: 3}
  cardType: SampleType
  subType: SampltSubtype
  cardCalss: Normal
  subClass: None
  instanceId: 0
  amount: 0
