[
	{
		"id": 1,
		"description":"<Nałóż punkt przeciążenia systemu>: Zdobądź punkt mocy obliczeniowej szkoły Raiderów.",
		"name":"Łącze szkoły Raiderów",
		"type":"Link",
		"subtype":"Basic"
	},
	{
		"id": 2,
		"description":"<Nałóż punkt przeciążenia systemu>: Zdobądź punkt mocy obliczeniowej szkoły Skanerów.",
		"name":"Łącze szkoły Skanerów",
		"type":"Link",
		"subtype":"Basic"
	},
{
		"id": 3,
		"description":"<Nałóż punkt przeciążenia systemu>: Zdobądź punkt mocy obliczeniowej szkoły White Hat’s.",
		"name":"Łącze szkoły White Hat’s",
		"type":"Link",
		"subtype":"Basic"
	},
{
		"id": 4,
		"description":"<Nałóż punkt przeciążenia systemu>: Zdobądź punkt mocy obliczeniowej szkoły Psychotroników.",
		"name":"Łącze szkoły Psychotroników",
		"type":"Link",
		"subtype":"Basic"
	},
{
		"id": 5,
		"statistics":{
			"attack":2,
			"defence":1
		},
		"abilities":[
			1
		],
		"cost":{
			"neutral":1,
			"raiders":1,
			"scanners":0,
			"whiteHats":0,
			"psychotronnics":0
		},
		"description":"Zawsze czujny",
		"name":"Husarz",
		"type":"Unit",
		"class": "SI",
		"subclass": "Prześladowca"
	},
{
		"id": 6,
		"cost":{
			"neutral":1,
			"raiders":1,
			"scanners":0,
			"whiteHats":0,
			"psychotronnics":0
		},
		"description":"Zadaj 3 punkty obrażeń jednostce, graczowi lub jednostce obliczeniowej",
		"name":"błyskawica",
		"type":"Script"
	},
{
		"id": 7,
		"cost":{
			"neutral":2,
			"raiders":2,
			"scanners":0,
			"whiteHats":0,
			"psychotronnics":0
		},
		"description":"Wszystkie twoje jednostki zyskują +2/+0 do końca tury.",
		"name":"wściekła szarża",
		"type":"Operation"
	},
{
		"id": 8,
		"cost":{
			"neutral":1,
			"raiders":2,
			"scanners":0,
			"whiteHats":0,
			"psychotronnics":0
		},
		"description":"Wszystkie jednostki Prześladowca otrzymują +1/+0.",
		"name":"a bo ja wiem",
		"type":"ServiceProgram"
	}
]
