[
{
		"id": 5,
		"statistics":{
			"attack":2,
			"defence":1
		},
		"abilities":[
			1
		],
		"cost":{
			"neutral":1,
			"raiders":1,
			"scanners":0,
			"whiteHats":0,
			"psychotronnics":0
		},
		"description":"Zawsze czujny",
		"name":"Husarz",
		"type":"Unit",
		"class": "SI",
		"subclass": "Prześladowca",
		"flavor":"flavor"
	}
]
